…
We just pick the columns that we need from the raw data. Again, we get rid of the subclients column as we did in the previous part.

``` r
q3 <- select(raw, 1, 2, 15, 16)
clients <- row.names(q3)[which(is.na(q3$Client)==FALSE)]
clients <- as.integer(clients)
q3 <- q3[clients, ]
cs <- row.names(q3)[which(is.na(q3$`16-Sep`)==FALSE)]
cs <- as.integer(cs)
q3 <- q3[cs, ]
q3 <- select(q3, -2)
q3
```

    ## # A tibble: 157 x 3
    ##                        Client `16-Aug` `16-Sep`
    ##                         <chr>    <dbl>    <dbl>
    ##  1                A Class Act     0.00     0.00
    ##  2 Abraham Natural Foods Corp  3556.80     0.00
    ##  3     Albertsons (SuperValu)  3098.88   982.80
    ##  4              Allina Health     0.00     0.00
    ##  5                 Amazebowls     0.00     0.00
    ##  6      Amazon Seller Central  1336.59   968.78
    ##  7                 Amazon.com 55210.55 73058.24
    ##  8    Ampersand Entertainment     0.00     0.00
    ##  9                 AOJ Snacks     0.00     0.00
    ## 10           Artis Coffee Inc     0.00     0.00
    ## # ... with 147 more rows
…
